{
  "teachers": [
    {
      "first_name": "М",
      "middle_name": "В",
      "last_name": "Почебут",
      "degree": "2"
    },
    {
      "first_name": "Г",
      "middle_name": "І",
      "last_name": "Малашонок",
      "degree": "3"
    }
  ],
  "themes": [
    {
      "name": "Практика дослідницька",
      "short_name": "ПД"
    },
    {
      "name": "Моделі паралельного програмування",
      "short_name": "МПП"
    }
  ],
  "lessons_times": [
    "1",
    "2",
    "3",
    "4",
    "5",
    "6"
  ],
  "lessons": [
    {
      "name": "Практика дослідницька",
      "short_name": "ПД",
      "lesson_time": 1,
      "day": 3,
      "room_data": {
        "housing": "1",
        "room": "309"
      },
      "format": 2,
      "teachers": [
        {
          "first_name": "М",
          "middle_name": "В",
          "last_name": "Почебут",
          "degree": "2"
        }
      ],
      "weeks": "111111000000000000",
      "subgroup": 1
    },
    {
      "name": "Практика дослідницька",
      "short_name": "ПД",
      "lesson_time": 2,
      "day": 3,
      "room_data": {
        "housing": "1",
        "room": "309"
      },
      "format": 2,
      "teachers": [
        {
          "first_name": "М",
          "middle_name": "В",
          "last_name": "Почебут",
          "degree": "2"
        }
      ],
      "weeks": "111111000000000000",
      "subgroup": 1
    },
    {
      "name": "Практика дослідницька",
      "short_name": "ПД",
      "lesson_time": 3,
      "day": 3,
      "room_data": {
        "housing": "1",
        "room": "309"
      },
      "format": 2,
      "teachers": [
        {
          "first_name": "М",
          "middle_name": "В",
          "last_name": "Почебут",
          "degree": "2"
        }
      ],
      "weeks": "111000000000000000",
      "subgroup": 1
    },
    {
      "name": "Моделі паралельного програмування",
      "short_name": "МПП",
      "lesson_time": 1,
      "day": 4,
      "room_data": {
        "housing": "10",
        "room": "4"
      },
      "format": 0,
      "teachers": [
        {
          "first_name": "Г",
          "middle_name": "І",
          "last_name": "Малашонок",
          "degree": "3"
        }
      ],
      "weeks": "1 "
    },
    {
      "name": "Моделі паралельного програмування",
      "short_name": "МПП",
      "lesson_time": 2,
      "day": 4,
      "room_data": {
        "housing": "10",
        "room": "4"
      },
      "format": 0,
      "teachers": [
        {
          "first_name": "Г",
          "middle_name": "І",
          "last_name": "Малашонок",
          "degree": "3"
        }
      ],
      "weeks": "111111000000000000"
    },
    {
      "name": "Моделі паралельного програмування",
      "short_name": "МПП",
      "lesson_time": 3,
      "day": 4,
      "room_data": {
        "housing": "10",
        "room": "4"
      },
      "format": 1,
      "teachers": [
        {
          "first_name": "Г",
          "middle_name": "І",
          "last_name": "Малашонок",
          "degree": "3"
        }
      ],
      "weeks": "111111000000000000",
      "subgroup": 1
    },
    {
      "name": "Моделі паралельного програмування",
      "short_name": "МПП",
      "lesson_time": 4,
      "day": 4,
      "room_data": {
        "housing": "10",
        "room": "4"
      },
      "format": 1,
      "teachers": [
        {
          "first_name": "Г",
          "middle_name": "І",
          "last_name": "Малашонок",
          "degree": "3"
        }
      ],
      "weeks": 3,
      "subgroup": 1
    }
  ]
}