{
  "teachers": [
    {
      "first_name": "С",
      "middle_name": "М",
      "last_name": "Дяченко",
      "degree": "2"
    },
    {
      "first_name": "М",
      "middle_name": "А",
      "last_name": "Дуденко",
      "degree": "5"
    },
    {
      "first_name": "А",
      "middle_name": "М",
      "last_name": "Глибовець",
      "degree": "2"
    },
    {
      "first_name": "А",
      "middle_name": "С",
      "last_name": "Шабінський",
      "degree": "4"
    },
    {
      "first_name": "М",
      "middle_name": "О",
      "last_name": "Шабінська",
      "degree": "5"
    }
  ],
  "themes": [
    {
      "name": "Алгебра та геометрія",
      "short_name": "АГ"
    },
    {
      "name": "Програмування",
      "short_name": "Програмування"
    }
  ],
  "lessons_times": [
    "1",
    "2",
    "3",
    "4",
    "5",
    "6"
  ],
  "lessons": [
    {
      "name": "Алгебра та геометрія",
      "short_name": "АГ",
      "lesson_time": 1,
      "day": 3,
      "room_data": {
        "housing": "3",
        "room": "302"
      },
      "format": 0,
      "teachers": [
        {
          "first_name": "С",
          "middle_name": "М",
          "last_name": "Дяченко",
          "degree": "2"
        }
      ],
      "weeks": "111111000000000000"
    },
    {
      "name": "Алгебра та геометрія",
      "short_name": "АГ",
      "lesson_time": 2,
      "day": 3,
      "room_data": {
        "housing": "3",
        "room": "302"
      },
      "format": 1,
      "teachers": [
        {
          "first_name": "С",
          "middle_name": "М",
          "last_name": "Дяченко",
          "degree": "2"
        }
      ],
      "weeks": "111111000000000000",
      "subgroup": 1
    },
    {
      "name": "Алгебра та геометрія",
      "short_name": "АГ",
      "lesson_time": 2,
      "day": 3,
      "room_data": {
        "housing": "1",
        "room": "112"
      },
      "format": 1,
      "teachers": [
        {
          "first_name": "М",
          "middle_name": "А",
          "last_name": "Дуденко",
          "degree": "5"
        }
      ],
      "weeks": "111111000000000000",
      "subgroup": 2
    },
    {
      "name": "Програмування",
      "short_name": "Програмування",
      "lesson_time": 2,
      "day": 4,
      "room_data": {
        "housing": "1",
        "room": "310"
      },
      "format": 0,
      "teachers": [
        {
          "first_name": "А",
          "middle_name": "М",
          "last_name": "Глибовець",
          "degree": "2"
        }
      ],
      "weeks": "111111000000000000"
    },
    {
      "name": "Програмування",
      "short_name": "Програмування",
      "lesson_time": 3,
      "day": 4,
      "room_data": {
        "housing": "1",
        "room": "307"
      },
      "format": 1,
      "teachers": [
        {
          "first_name": "А",
          "middle_name": "С",
          "last_name": "Шабінський",
          "degree": "4"
        }
      ],
      "weeks": "111111000000000000",
      "subgroup": 1
    },
    {
      "name": "Програмування",
      "short_name": "Програмування",
      "lesson_time": 3,
      "day": 4,
      "room_data": {
        "housing": "1",
        "room": "306"
      },
      "format": 1,
      "teachers": [
        {
          "first_name": "М",
          "middle_name": "О",
          "last_name": "Шабінська",
          "degree": "5"
        }
      ],
      "weeks": "111111000000000000",
      "subgroup": 3
    },
    {
      "name": "Програмування",
      "short_name": "Програмування",
      "lesson_time": 4,
      "day": 4,
      "room_data": {
        "housing": "1",
        "room": "307"
      },
      "format": 1,
      "teachers": [
        {
          "first_name": "А",
          "middle_name": "С",
          "last_name": "Шабінський",
          "degree": "4"
        }
      ],
      "weeks": "111111000000000000",
      "subgroup": 2
    },
    {
      "name": "Програмування",
      "short_name": "Програмування",
      "lesson_time": 4,
      "day": 4,
      "room_data": {
        "housing": "1",
        "room": "306"
      },
      "format": 1,
      "teachers": [
        {
          "first_name": "М",
          "middle_name": "О",
          "last_name": "Шабінська",
          "degree": "5"
        }
      ],
      "weeks": "111111000000000000",
      "subgroup": 4
    }
  ]
}