{
  "teachers": [
    {
      "first_name": "О",
      "middle_name": "А",
      "last_name": "Бучко",
      "degree": "5"
    },
    {
      "first_name": "С",
      "middle_name": "О",
      "last_name": "Борозенний",
      "degree": "1"
    },
    {
      "first_name": "В",
      "middle_name": "В",
      "last_name": "Горборуков",
      "degree": "5"
    },
    {
      "first_name": "Н",
      "middle_name": "Є",
      "last_name": "Вовк",
      "degree": "5"
    },
    {
      "first_name": "О",
      "middle_name": "М",
      "last_name": "Пєчкурова",
      "degree": "1"
    },
    {
      "first_name": "О",
      "middle_name": "В",
      "last_name": "Кирієнко",
      "degree": "5"
    }
  ],
  "themes": [
    {
      "name": "Розробка клієнт серверних застосувань на Java",
      "short_name": "РКСЗНJ"
    },
    {
      "name": "Практикум з об’єктно-орієнтованого програмування",
      "short_name": "ПЗО"
    },
    {
      "name": "Практика дослідницька",
      "short_name": "ПД"
    }
  ],
  "lessons_times": [
    "1",
    "2",
    "3",
    "4",
    "5",
    "6"
  ],
  "lessons": [
    {
      "name": "Розробка клієнт серверних застосувань на Java",
      "short_name": "РКСЗНJ",
      "lesson_time": 1,
      "day": 1,
      "room_data": {
        "housing": "1",
        "room": "313"
      },
      "format": 0,
      "teachers": [],
      "weeks": "011101000000000000"
    },
    {
      "name": "Розробка клієнт серверних застосувань на Java",
      "short_name": "РКСЗНJ",
      "lesson_time": 2,
      "day": 1,
      "room_data": {
        "housing": "1",
        "room": "313"
      },
      "format": 0,
      "teachers": [],
      "weeks": "011000000000000000"
    },
    {
      "name": "Розробка клієнт серверних застосувань на Java",
      "short_name": "РКСЗНJ",
      "lesson_time": 2,
      "day": 1,
      "room_data": {
        "housing": "1",
        "room": "310"
      },
      "format": 1,
      "teachers": [],
      "weeks": "000101100000000000",
      "subgroup": 1
    },
    {
      "name": "Розробка клієнт серверних застосувань на Java",
      "short_name": "РКСЗНJ",
      "lesson_time": 3,
      "day": 1,
      "room_data": {
        "housing": "1",
        "room": "310"
      },
      "format": 1,
      "teachers": [],
      "weeks": "011100000000000000",
      "subgroup": 1
    },
    {
      "name": "Розробка клієнт серверних застосувань на Java",
      "short_name": "РКСЗНJ",
      "lesson_time": 3,
      "day": 1,
      "room_data": {
        "housing": "1",
        "room": "310"
      },
      "format": 1,
      "teachers": [],
      "weeks": "000001100000000000",
      "subgroup": 2
    },
    {
      "name": "Розробка клієнт серверних застосувань на Java",
      "short_name": "РКСЗНJ",
      "lesson_time": 4,
      "day": 1,
      "room_data": {
        "housing": "1",
        "room": "310"
      },
      "format": 1,
      "teachers": [],
      "weeks": "011101000000000000",
      "subgroup": 2
    },
    {
      "name": "Практикум з об’єктно-орієнтованого програмування",
      "short_name": "ПЗО",
      "lesson_time": 1,
      "day": 2,
      "room_data": {
        "housing": "1",
        "room": "112"
      },
      "format": 1,
      "teachers": [
        {
          "first_name": "О",
          "middle_name": "А",
          "last_name": "Бучко",
          "degree": "5"
        }
      ],
      "weeks": "111111000000000000",
      "subgroup": 3
    },
    {
      "name": "Практикум з об’єктно-орієнтованого програмування",
      "short_name": "ПЗО",
      "lesson_time": 2,
      "day": 2,
      "room_data": {
        "housing": "1",
        "room": "206"
      },
      "format": 1,
      "teachers": [
        {
          "first_name": "С",
          "middle_name": "О",
          "last_name": "Борозенний",
          "degree": "1"
        }
      ],
      "weeks": "111111000000000000",
      "subgroup": 1
    },
    {
      "name": "Практикум з об’єктно-орієнтованого програмування",
      "short_name": "ПЗО",
      "lesson_time": 2,
      "day": 2,
      "room_data": {
        "housing": "10",
        "room": "1"
      },
      "format": 1,
      "teachers": [
        {
          "first_name": "В",
          "middle_name": "В",
          "last_name": "Горборуков",
          "degree": "5"
        }
      ],
      "weeks": "111111000000000000",
      "subgroup": 6
    },
    {
      "name": "Практикум з об’єктно-орієнтованого програмування",
      "short_name": "ПЗО",
      "lesson_time": 2,
      "day": 2,
      "room_data": {
        "housing": "1",
        "room": "208"
      },
      "format": 1,
      "teachers": [
        {
          "first_name": "Н",
          "middle_name": "Є",
          "last_name": "Вовк",
          "degree": "5"
        }
      ],
      "weeks": "111111000000000000",
      "subgroup": 8
    },
    {
      "name": "Практикум з об’єктно-орієнтованого програмування",
      "short_name": "ПЗО",
      "lesson_time": 2,
      "day": 2,
      "room_data": {
        "housing": "1",
        "room": "112"
      },
      "format": 1,
      "teachers": [
        {
          "first_name": "О",
          "middle_name": "А",
          "last_name": "Бучко",
          "degree": "5"
        }
      ],
      "weeks": "111111000000000000",
      "subgroup": 4
    },
    {
      "name": "Практикум з об’єктно-орієнтованого програмування",
      "short_name": "ПЗО",
      "lesson_time": 3,
      "day": 2,
      "room_data": {
        "housing": "1",
        "room": "206"
      },
      "format": 1,
      "teachers": [
        {
          "first_name": "С",
          "middle_name": "О",
          "last_name": "Борозенний",
          "degree": "1"
        }
      ],
      "weeks": "111111000000000000",
      "subgroup": 2
    },
    {
      "name": "Практикум з об’єктно-орієнтованого програмування",
      "short_name": "ПЗО",
      "lesson_time": 3,
      "day": 2,
      "room_data": {
        "housing": "10",
        "room": "1"
      },
      "format": 1,
      "teachers": [
        {
          "first_name": "В",
          "middle_name": "В",
          "last_name": "Горборуков",
          "degree": "5"
        }
      ],
      "weeks": "111111000000000000",
      "subgroup": 5
    },
    {
      "name": "Практикум з об’єктно-орієнтованого програмування",
      "short_name": "ПЗО",
      "lesson_time": 3,
      "day": 2,
      "room_data": {
        "housing": "1",
        "room": "208"
      },
      "format": 1,
      "teachers": [
        {
          "first_name": "Н",
          "middle_name": "Є",
          "last_name": "Вовк",
          "degree": "5"
        }
      ],
      "weeks": "111111000000000000",
      "subgroup": 7
    },
    {
      "name": "Практикум з об’єктно-орієнтованого програмування",
      "short_name": "ПЗО",
      "lesson_time": 4,
      "day": 2,
      "room_data": {
        "housing": "1",
        "room": "208"
      },
      "format": 1,
      "teachers": [
        {
          "first_name": "Н",
          "middle_name": "Є",
          "last_name": "Вовк",
          "degree": "5"
        }
      ],
      "weeks": "111111000000000000",
      "subgroup": 9
    },
    {
      "name": "Розробка клієнт серверних застосувань на Java",
      "short_name": "РКСЗНJ",
      "lesson_time": 1,
      "day": 3,
      "room_data": {
        "housing": "1",
        "room": "206"
      },
      "format": 1,
      "teachers": [],
      "weeks": "111111000000000000",
      "subgroup": 3
    },
    {
      "name": "Практика дослідницька",
      "short_name": "ПД",
      "lesson_time": 1,
      "day": 3,
      "room_data": {
        "housing": "1",
        "room": "307"
      },
      "format": 2,
      "teachers": [
        {
          "first_name": "О",
          "middle_name": "М",
          "last_name": "Пєчкурова",
          "degree": "1"
        }
      ],
      "weeks": "111111000000000000",
      "subgroup": 1
    },
    {
      "name": "Практика дослідницька",
      "short_name": "ПД",
      "lesson_time": 1,
      "day": 3,
      "room_data": {
        "housing": "1",
        "room": "306"
      },
      "format": 2,
      "teachers": [
        {
          "first_name": "О",
          "middle_name": "В",
          "last_name": "Кирієнко",
          "degree": "5"
        }
      ],
      "weeks": "111111000000000000",
      "subgroup": 2
    },
    {
      "name": "Практика дослідницька",
      "short_name": "ПД",
      "lesson_time": 2,
      "day": 3,
      "room_data": {
        "housing": "1",
        "room": "307"
      },
      "format": 2,
      "teachers": [
        {
          "first_name": "О",
          "middle_name": "М",
          "last_name": "Пєчкурова",
          "degree": "1"
        }
      ],
      "weeks": "111111000000000000",
      "subgroup": 3
    },
    {
      "name": "Практика дослідницька",
      "short_name": "ПД",
      "lesson_time": 2,
      "day": 3,
      "room_data": {
        "housing": "1",
        "room": "306"
      },
      "format": 2,
      "teachers": [
        {
          "first_name": "О",
          "middle_name": "В",
          "last_name": "Кирієнко",
          "degree": "5"
        }
      ],
      "weeks": "111111000000000000",
      "subgroup": 2
    },
    {
      "name": "Розробка клієнт серверних застосувань на Java",
      "short_name": "РКСЗНJ",
      "lesson_time": 2,
      "day": 3,
      "room_data": {
        "housing": "1",
        "room": "206"
      },
      "format": 1,
      "teachers": [],
      "weeks": "111111000000000000",
      "subgroup": 4
    },
    {
      "name": "Практика дослідницька",
      "short_name": "ПД",
      "lesson_time": 3,
      "day": 3,
      "room_data": {
        "housing": "1",
        "room": "307"
      },
      "format": 2,
      "teachers": [
        {
          "first_name": "О",
          "middle_name": "М",
          "last_name": "Пєчкурова",
          "degree": "1"
        }
      ],
      "weeks": "111111000000000000",
      "subgroup": 5
    },
    {
      "name": "Практика дослідницька",
      "short_name": "ПД",
      "lesson_time": 3,
      "day": 3,
      "room_data": {
        "housing": "1",
        "room": "306"
      },
      "format": 2,
      "teachers": [
        {
          "first_name": "О",
          "middle_name": "В",
          "last_name": "Кирієнко",
          "degree": "5"
        }
      ],
      "weeks": "111111000000000000",
      "subgroup": 4
    },
    {
      "name": "Розробка клієнт серверних застосувань на Java",
      "short_name": "РКСЗНJ",
      "lesson_time": 3,
      "day": 3,
      "room_data": {
        "housing": "1",
        "room": "206"
      },
      "format": 1,
      "teachers": [],
      "weeks": "111111000000000000",
      "subgroup": 5
    },
    {
      "name": "Розробка клієнт серверних застосувань на Java",
      "short_name": "РКСЗНJ",
      "lesson_time": 4,
      "day": 3,
      "room_data": {
        "housing": "1",
        "room": "206"
      },
      "format": 1,
      "teachers": [],
      "weeks": "111111000000000000",
      "subgroup": 6
    },
    {
      "name": "Практика дослідницька",
      "short_name": "ПД",
      "lesson_time": 4,
      "day": 3,
      "room_data": {
        "housing": "1",
        "room": "307"
      },
      "format": 2,
      "teachers": [
        {
          "first_name": "О",
          "middle_name": "М",
          "last_name": "Пєчкурова",
          "degree": "1"
        }
      ],
      "weeks": "111111000000000000",
      "subgroup": 1
    },
    {
      "name": "Практика дослідницька",
      "short_name": "ПД",
      "lesson_time": 4,
      "day": 3,
      "room_data": {
        "housing": "1",
        "room": "306"
      },
      "format": 2,
      "teachers": [
        {
          "first_name": "О",
          "middle_name": "В",
          "last_name": "Кирієнко",
          "degree": "5"
        }
      ],
      "weeks": "111111000000000000",
      "subgroup": 4
    },
    {
      "name": "Розробка клієнт серверних застосувань на Java",
      "short_name": "РКСЗНJ",
      "lesson_time": 5,
      "day": 3,
      "room_data": {
        "housing": "1",
        "room": "206"
      },
      "format": 1,
      "teachers": [],
      "weeks": "111111000000000000",
      "subgroup": 7
    },
    {
      "name": "Практика дослідницька",
      "short_name": "ПД",
      "lesson_time": 5,
      "day": 3,
      "room_data": {
        "housing": "1",
        "room": "307"
      },
      "format": 2,
      "teachers": [
        {
          "first_name": "О",
          "middle_name": "М",
          "last_name": "Пєчкурова",
          "degree": "1"
        }
      ],
      "weeks": "111111000000000000",
      "subgroup": 3
    },
    {
      "name": "Практика дослідницька",
      "short_name": "ПД",
      "lesson_time": 5,
      "day": 3,
      "room_data": {
        "housing": "1",
        "room": "306"
      },
      "format": 2,
      "teachers": [
        {
          "first_name": "О",
          "middle_name": "В",
          "last_name": "Кирієнко",
          "degree": "5"
        }
      ],
      "weeks": "111111000000000000",
      "subgroup": 6
    },
    {
      "name": "Розробка клієнт серверних застосувань на Java",
      "short_name": "РКСЗНJ",
      "lesson_time": 6,
      "day": 3,
      "room_data": {
        "housing": "1",
        "room": "206"
      },
      "format": 1,
      "teachers": [],
      "weeks": "111111000000000000",
      "subgroup": 8
    },
    {
      "name": "Практика дослідницька",
      "short_name": "ПД",
      "lesson_time": 6,
      "day": 3,
      "room_data": {
        "housing": "1",
        "room": "307"
      },
      "format": 2,
      "teachers": [
        {
          "first_name": "О",
          "middle_name": "М",
          "last_name": "Пєчкурова",
          "degree": "1"
        }
      ],
      "weeks": "111111000000000000",
      "subgroup": 5
    },
    {
      "name": "Практика дослідницька",
      "short_name": "ПД",
      "lesson_time": 6,
      "day": 3,
      "room_data": {
        "housing": "1",
        "room": "306"
      },
      "format": 2,
      "teachers": [
        {
          "first_name": "О",
          "middle_name": "В",
          "last_name": "Кирієнко",
          "degree": "5"
        }
      ],
      "weeks": "111111000000000000",
      "subgroup": 6
    },
    {
      "name": "Практикум з об’єктно-орієнтованого програмування",
      "short_name": "ПЗО",
      "lesson_time": 1,
      "day": 4,
      "room_data": {
        "housing": "1",
        "room": "112"
      },
      "format": 1,
      "teachers": [
        {
          "first_name": "О",
          "middle_name": "А",
          "last_name": "Бучко",
          "degree": "5"
        }
      ],
      "weeks": "111111000000000000",
      "subgroup": 3
    },
    {
      "name": "Практикум з об’єктно-орієнтованого програмування",
      "short_name": "ПЗО",
      "lesson_time": 2,
      "day": 4,
      "room_data": {
        "housing": "1",
        "room": "206"
      },
      "format": 1,
      "teachers": [
        {
          "first_name": "С",
          "middle_name": "О",
          "last_name": "Борозенний",
          "degree": "1"
        }
      ],
      "weeks": "111111000000000000",
      "subgroup": 1
    },
    {
      "name": "Практикум з об’єктно-орієнтованого програмування",
      "short_name": "ПЗО",
      "lesson_time": 2,
      "day": 4,
      "room_data": {
        "housing": "10",
        "room": "1"
      },
      "format": 1,
      "teachers": [
        {
          "first_name": "В",
          "middle_name": "В",
          "last_name": "Горборуков",
          "degree": "5"
        }
      ],
      "weeks": "111111000000000000",
      "subgroup": 6
    },
    {
      "name": "Практикум з об’єктно-орієнтованого програмування",
      "short_name": "ПЗО",
      "lesson_time": 2,
      "day": 4,
      "room_data": {
        "housing": "1",
        "room": "208"
      },
      "format": 1,
      "teachers": [
        {
          "first_name": "Н",
          "middle_name": "Є",
          "last_name": "Вовк",
          "degree": "5"
        }
      ],
      "weeks": "111111000000000000",
      "subgroup": 8
    },
    {
      "name": "Практикум з об’єктно-орієнтованого програмування",
      "short_name": "ПЗО",
      "lesson_time": 2,
      "day": 4,
      "room_data": {
        "housing": "1",
        "room": "112"
      },
      "format": 1,
      "teachers": [
        {
          "first_name": "О",
          "middle_name": "А",
          "last_name": "Бучко",
          "degree": "5"
        }
      ],
      "weeks": "111111000000000000",
      "subgroup": 4
    },
    {
      "name": "Практикум з об’єктно-орієнтованого програмування",
      "short_name": "ПЗО",
      "lesson_time": 3,
      "day": 4,
      "room_data": {
        "housing": "10",
        "room": "1"
      },
      "format": 1,
      "teachers": [
        {
          "first_name": "В",
          "middle_name": "В",
          "last_name": "Горборуков",
          "degree": "5"
        }
      ],
      "weeks": "111111000000000000",
      "subgroup": 5
    },
    {
      "name": "Практикум з об’єктно-орієнтованого програмування",
      "short_name": "ПЗО",
      "lesson_time": 3,
      "day": 4,
      "room_data": {
        "housing": "1",
        "room": "208"
      },
      "format": 1,
      "teachers": [
        {
          "first_name": "Н",
          "middle_name": "Є",
          "last_name": "Вовк",
          "degree": "5"
        }
      ],
      "weeks": "111111000000000000",
      "subgroup": 7
    },
    {
      "name": "Практикум з об’єктно-орієнтованого програмування",
      "short_name": "ПЗО",
      "lesson_time": 3,
      "day": 4,
      "room_data": {
        "housing": "1",
        "room": "206"
      },
      "format": 1,
      "teachers": [
        {
          "first_name": "С",
          "middle_name": "О",
          "last_name": "Борозенний",
          "degree": "1"
        }
      ],
      "weeks": "111111000000000000",
      "subgroup": 2
    },
    {
      "name": "Практикум з об’єктно-орієнтованого програмування",
      "short_name": "ПЗО",
      "lesson_time": 4,
      "day": 4,
      "room_data": {
        "housing": "1",
        "room": "208"
      },
      "format": 1,
      "teachers": [
        {
          "first_name": "Н",
          "middle_name": "Є",
          "last_name": "Вовк",
          "degree": "5"
        }
      ],
      "weeks": "111111000000000000",
      "subgroup": 9
    },
    {
      "name": "Практика дослідницька",
      "short_name": "ПД",
      "lesson_time": 5,
      "day": 4,
      "room_data": {
        "housing": "1",
        "room": "307"
      },
      "format": 2,
      "teachers": [
        {
          "first_name": "О",
          "middle_name": "М",
          "last_name": "Пєчкурова",
          "degree": "1"
        }
      ],
      "weeks": "111000000000000000",
      "subgroup": 1
    },
    {
      "name": "Практика дослідницька",
      "short_name": "ПД",
      "lesson_time": 5,
      "day": 4,
      "room_data": {
        "housing": "1",
        "room": "307"
      },
      "format": 2,
      "teachers": [
        {
          "first_name": "О",
          "middle_name": "М",
          "last_name": "Пєчкурова",
          "degree": "1"
        }
      ],
      "weeks": "000111000000000000",
      "subgroup": 3
    },
    {
      "name": "Практика дослідницька",
      "short_name": "ПД",
      "lesson_time": 5,
      "day": 4,
      "room_data": {
        "housing": "1",
        "room": "306"
      },
      "format": 2,
      "teachers": [
        {
          "first_name": "О",
          "middle_name": "В",
          "last_name": "Кирієнко",
          "degree": "5"
        }
      ],
      "weeks": "111000000000000000",
      "subgroup": 2
    },
    {
      "name": "Практика дослідницька",
      "short_name": "ПД",
      "lesson_time": 5,
      "day": 4,
      "room_data": {
        "housing": "1",
        "room": "306"
      },
      "format": 2,
      "teachers": [
        {
          "first_name": "О",
          "middle_name": "В",
          "last_name": "Кирієнко",
          "degree": "5"
        }
      ],
      "weeks": "000111000000000000",
      "subgroup": 4
    },
    {
      "name": "Практика дослідницька",
      "short_name": "ПД",
      "lesson_time": 6,
      "day": 4,
      "room_data": {
        "housing": "1",
        "room": "307"
      },
      "format": 2,
      "teachers": [
        {
          "first_name": "О",
          "middle_name": "М",
          "last_name": "Пєчкурова",
          "degree": "1"
        }
      ],
      "weeks": "111000000000000000",
      "subgroup": 5
    },
    {
      "name": "Практика дослідницька",
      "short_name": "ПД",
      "lesson_time": 6,
      "day": 4,
      "room_data": {
        "housing": "1",
        "room": "306"
      },
      "format": 2,
      "teachers": [
        {
          "first_name": "О",
          "middle_name": "В",
          "last_name": "Кирієнко",
          "degree": "5"
        }
      ],
      "weeks": "111000000000000000",
      "subgroup": 6
    }
  ]
}